3 Data Wrangling and Visualization (part 2) – Advanced Statistics and Data Analysis
…
gap <- read_tsv(gap_tsv)

Rows: 1704 Columns: 6
── Column specification ────────────────────────────────────────────────────────
Delimiter: "\t"
chr (2): country, continent
dbl (4): year, lifeExp, pop, gdpPercap

ℹ Use `spec()` to retrieve the full column specification for this data.
ℹ Specify the column types or set `show_col_types = FALSE` to quiet this message.

gap

# A tibble: 1,704 × 6
   country     continent  year lifeExp      pop gdpPercap
   <chr>       <chr>     <dbl>   <dbl>    <dbl>     <dbl>
 1 Afghanistan Asia       1952    28.8  8425333      779.
 2 Afghanistan Asia       1957    30.3  9240934      821.
 3 Afghanistan Asia       1962    32.0 10267083      853.
 4 Afghanistan Asia       1967    34.0 11537966      836.
 5 Afghanistan Asia       1972    36.1 13079460      740.
 6 Afghanistan Asia       1977    38.4 14880372      786.
 7 Afghanistan Asia       1982    39.9 12881816      978.
 8 Afghanistan Asia       1987    40.8 13867957      852.
 9 Afghanistan Asia       1992    41.7 16317921      649.
10 Afghanistan Asia       1997    41.8 22227415      635.
# ℹ 1,694 more rows
…
Additional functions useful to transform the data are the separate() and unite() functions. You can find out what they do as an exercize.

Exercise

Explore the dataset airquality:

What are the variables? What are the observations?

Transform it into a taller dataset, so that it will look like this:

# A tibble: 612 × 4
   Month   Day variable value
   <int> <int> <chr>    <dbl>
 1     5     1 Ozone     41  
 2     5     1 Solar.R  190  
 3     5     1 Wind       7.4
 4     5     1 Temp      67  
 5     5     2 Ozone     36  
 6     5     2 Solar.R  118  
 7     5     2 Wind       8  
 8     5     2 Temp      72  
 9     5     3 Ozone     12  
10     5     3 Solar.R  149  
# ℹ 602 more rows
…
