2 Data Visualization – Advanced Statistics and Data Analysis
…
This is the way to install packages in R. For this lab we will need the dplyr, tidyr, magrittr, and ggplot2 packages. Although we can install these packages independently, a convenient alternative is to install the tidyverse package.

install.packages("tidyverse")

You will need to install the packages only once, but the packages need to be loaded into R at every new session.

library(tidyverse)
library(gapminder)

After loading the package, we can have a look at the dataset.

gapminder

# A tibble: 1,704 × 6
   country     continent  year lifeExp      pop gdpPercap
   <fct>       <fct>     <int>   <dbl>    <int>     <dbl>
 1 Afghanistan Asia       1952    28.8  8425333      779.
 2 Afghanistan Asia       1957    30.3  9240934      821.
 3 Afghanistan Asia       1962    32.0 10267083      853.
 4 Afghanistan Asia       1967    34.0 11537966      836.
 5 Afghanistan Asia       1972    36.1 13079460      740.
 6 Afghanistan Asia       1977    38.4 14880372      786.
 7 Afghanistan Asia       1982    39.9 12881816      978.
 8 Afghanistan Asia       1987    40.8 13867957      852.
 9 Afghanistan Asia       1992    41.7 16317921      649.
10 Afghanistan Asia       1997    41.8 22227415      635.
# ℹ 1,694 more rows
…
2.2.6.4 Life expectancy per continent 1962-1997

gapminder |>
  filter(year >= 1962 & year <= 1997) |>
  group_by(continent, year) |>
  summarize(averageExp = mean(lifeExp))

# A tibble: 40 × 3
# Groups:   continent [5]
   continent  year averageExp
   <fct>     <int>      <dbl>
 1 Africa     1962       43.3
 2 Africa     1967       45.3
 3 Africa     1972       47.5
 4 Africa     1977       49.6
 5 Africa     1982       51.6
 6 Africa     1987       53.3
 7 Africa     1992       53.6
 8 Africa     1997       53.6
 9 Americas   1962       58.4
10 Americas   1967       60.4
# ℹ 30 more rows
…
